Smith,607,11,96,495
Johnson,665,16,88,391
Williams,1125,23,90,257
Jones,1198,10,88,236
Brown,1005,12,97,380
Davis,925,17,86,465
Miller,917,8,94,438
Wilson,913,16,88,270
Moore,744,7,90,242
Taylor,1187,12,87,210
